four_bits_and/four_bits_and/simulation/qsim/four_bits_and.msim.vcd
$comment
	File created using the following command:
		vcd file four_bits_and.msim.vcd -direction
$end
$date
	Wed Jul 14 22:10:25 2021
$end
$version
	ModelSim Version 2020.1
$end
$timescale
	1ps
$end

$scope module four_bits_and_vlg_vec_tst $end
$var reg 4 ! A [0:3] $end
$var reg 4 " B [0:3] $end
$var wire 1 # F [0] $end
$var wire 1 $ F [1] $end
$var wire 1 % F [2] $end
$var wire 1 & F [3] $end

$scope module i1 $end
$var wire 1 ' gnd $end
$var wire 1 ( vcc $end
$var wire 1 ) unknown $end
$var tri1 1 * devclrn $end
$var tri1 1 + devpor $end
$var tri1 1 , devoe $end
$var wire 1 - F[0]~output_o $end
$var wire 1 . F[1]~output_o $end
$var wire 1 / F[2]~output_o $end
$var wire 1 0 F[3]~output_o $end
$var wire 1 1 A[0]~input_o $end
$var wire 1 2 B[0]~input_o $end
$var wire 1 3 and_0~combout $end
$var wire 1 4 B[1]~input_o $end
$var wire 1 5 A[1]~input_o $end
$var wire 1 6 and_1~combout $end
$var wire 1 7 B[2]~input_o $end
$var wire 1 8 A[2]~input_o $end
$var wire 1 9 and_2~combout $end
$var wire 1 : B[3]~input_o $end
$var wire 1 ; A[3]~input_o $end
$var wire 1 < and_3~combout $end
$upscope $end
$upscope $end
$enddefinitions $end
#0
$dumpvars
b100 !
b1111 "
0&
0%
1$
0#
0'
1(
x)
1*
1+
1,
0-
1.
0/
00
01
12
03
14
15
16
17
08
09
1:
0;
0<
$end
#10000
b101 !
b111 !
b1111 !
b1110 "
b1010 "
0:
04
1;
18
11
06
19
13
1-
1/
0.
0$
1%
1#
#20000
b1011 !
b1000 "
b0 "
b1010 !
b1000 !
b0 !
b1 "
1:
07
02
0;
08
05
01
09
03
0-
0/
0%
0#
#30000
b1001 "
b10 !
b1010 !
b1000 "
18
11
0:
12
13
1-
1#
#40000
b1010 "
b1011 !
b10 "
b11 !
1;
01
17
02
03
19
1/
0-
0#
1%
#50000
b11 "
b10 !
0;
1:
#60000
b1 "
b1001 "
b1010 !
11
07
12
13
09
0/
1-
1#
0%
#70000
b1011 "
b11 "
b10 !
01
17
02
03
19
1/
0-
0#
1%
#80000
b111 "
b110 !
b100 !
b101 "
b1101 "
b1100 !
08
15
11
07
14
12
09
16
13
1-
1.
0/
0%
1$
1#
#90000
b1100 "
b1101 !
b1000 "
b1001 !
b1011 !
b0 "
b11 !
1;
18
05
01
0:
04
02
06
03
0-
0.
0$
0#
#100000
b10 "
b11 "
b10 !
b0 !
b1000 !
0;
08
11
1:
17
#110000
b1 "
b0 "
0:
07
#120000
b100 "
b1100 !
b110 "
15
17
14
16
1.
1$
#130000
b1110 !
b110 !
b10 !
b100 "
07
18
05
01
06
0.
0$
#140000
b1100 "
b11 !
b111 !
1;
15
12
16
1.
1$
#150000
b101 !
b100 !
b0 !
0;
08
05
06
0.
0$
#160000
b1000 "
b1000 !
b1010 "
b10 "
b1001 !
1;
11
17
04
02
#170000
b1011 !
b11 !
b0 "
b1000 "
07
12
18
01
#180000
b1001 "
b1101 "
b10 !
b0 !
b1000 !
b101 "
0;
08
11
1:
14
02
#190000
b1010 !
b1101 "
12
18
13
1-
1#
#200000
b1110 !
b1111 "
17
15
19
16
1.
1/
1%
1$
#210000
b1011 "
b1111 !
b11 "
b1 "
1;
07
04
02
1<
09
06
03
0-
0.
0/
10
1&
0%
0$
0#
#220000
b0 "
b1101 !
b100 "
b1100 !
0;
08
0:
14
0<
16
1.
00
0&
1$
#230000
b1000 !
b1100 "
b1110 "
b1111 "
b1011 "
1:
17
04
12
05
06
13
1-
0.
0$
1#
#240000
b1001 !
b1111 "
14
1;
1<
10
1&
#250000
b1 !
b11 !
b111 !
b1110 "
b110 !
b1010 "
0:
04
0;
18
15
01
0<
19
03
0-
1/
00
0&
1%
0#
#260000
b10 "
b0 "
b1110 !
b1010 !
b1 "
b101 "
05
11
1:
07
14
02
09
0/
0%
#270000
b1000 !
b1101 "
b0 !
b100 !
b1100 "
b1000 "
0:
04
12
08
15
01
#280000
b101 !
b111 !
b0 "
02
1;
18
#290000
b1111 !
b1011 !
b1 "
b101 "
b1001 !
1:
14
08
05
11
1<
10
1&
#300000
b111 "
b1111 "
b1110 "
b1011 !
18
0:
17
12
19
0<
13
1-
00
1/
1%
0&
1#
#310000
b1100 "
07
09
0/
0%
#320000
b1010 !
b1110 !
b100 "
b1100 !
b110 "
17
02
0;
08
15
03
16
1.
0-
0#
1$
#330000
b100 !
b0 !
b1110 "
12
05
01
06
0.
0$
#340000
b1010 "
b1 !
1;
04
#350000
b1011 "
b11 !
18
1:
19
1<
10
1/
1%
1&
#360000
b1001 "
b1011 !
b1 "
b101 "
b1010 !
b100 "
b1000 !
0;
08
11
0:
07
14
02
0<
09
0/
00
0&
0%
#370000
b0 !
b1 !
b101 "
1:
1;
01
1<
10
1&
#380000
b1 "
b11 !
18
04
#390000
b111 !
b1001 "
b1000 "
b1100 "
0:
14
12
15
0<
16
1.
00
0&
1$
#400000
b1111 !
b1110 !
b1100 !
b1000 !
b1101 "
1:
0;
08
05
11
06
13
1-
0.
0$
1#
#410000
b1001 "
b0 !
01
04
03
0-
0#
#420000
b1 "
b1 !
b11 !
b111 !
b0 "
b100 "
1;
18
15
0:
14
02
16
1.
1$
#430000
b110 "
b1111 !
b10 "
11
17
04
19
06
0.
1/
1%
0$
#440000
b1010 "
b1011 !
b1011 "
b1001 "
b1101 "
05
1:
07
14
12
1<
09
13
1-
0/
10
1&
0%
1#
#450000
b11 !
b101 "
b111 "
b11 "
17
04
02
01
19
03
0-
1/
1%
0#
#460000
b111 !
b10 "
b110 "
0:
14
15
0<
16
1.
00
0&
1$
#470000
b110 !
b1110 !
0;
11
#480000
b1100 !
b1000 !
b111 "
b11 "
b0 !
1:
04
08
05
01
06
09
0/
0.
0$
0%
#490000
b1011 "
b1 !
b11 !
b111 !
b1111 "
b1111 !
1;
18
15
11
14
12
1<
19
16
13
1-
1.
1/
10
1&
1%
1$
1#
#500000
b1101 "
b1101 !
b1001 "
b101 !
08
01
07
04
09
03
06
0.
0-
0/
0%
0#
0$
#510000
b1000 "
b111 !
b1111 !
18
11
0:
13
0<
00
1-
1#
0&
#520000
b0 "
b1110 !
b10 "
b110 "
b110 !
0;
01
17
14
02
03
19
16
1.
1/
0-
0#
1%
1$
#530000
b10 !
b111 "
b1111 "
b1101 "
b1001 "
b1010 !
1:
07
04
12
05
11
09
06
13
1-
0.
0/
0%
0$
1#
#540000
b1000 "
b1100 "
0:
14
#550000
b1000 !
b1001 !
b1101 !
b1110 "
b101 !
17
1;
08
15
01
16
03
0-
1.
1$
0#
#560000
b110 "
b1 !
b1001 !
05
11
02
06
0.
0$
#570000
b1000 !
b1110 "
b1100 !
12
0;
15
13
16
1.
1-
1#
1$
#580000
b1111 "
b1011 "
b1110 !
18
1:
04
19
06
0.
1/
1%
0$
#590000
b110 !
b10 !
b1010 "
b0 !
0:
08
05
01
09
03
0-
0/
0%
0#
#600000
b1 !
b10 "
b1001 !
b1101 !
b1111 !
02
1;
18
15
11
19
1/
1%
#610000
b0 "
b1110 !
b1010 !
b1000 !
0;
08
05
07
09
0/
0%
#620000
b1000 "
b0 !
b1 !
b101 !
b111 !
1;
18
15
01
12
#630000
b1100 "
b1110 "
b110 "
b1111 !
b1110 !
b1010 !
0;
05
11
17
14
02
19
1/
1%
#640000
b10 "
b1010 "
b1110 !
15
04
12
13
1-
1#
#650000
b1000 "
b110 !
b111 !
b1100 "
b11 !
1;
05
01
07
14
03
09
0/
0-
0#
0%
#660000
b100 "
b110 "
b10 "
17
04
02
19
1/
1%
#670000
b10 !
b110 !
b1010 "
12
0;
15
#680000
b1011 "
b1110 !
b1010 !
05
11
1:
13
1-
1#
#690000
b1001 "
b1 "
b10 !
b110 !
15
01
07
02
03
09
0/
0-
0#
0%
#700000
b100 !
b101 "
b101 !
b100 "
b110 "
b1110 "
b1 !
0:
17
14
12
1;
08
05
#710000
b1001 !
b1111 "
b1101 "
1:
07
11
1<
13
1-
10
1&
1#
#720000
b1011 !
b1010 !
b10 !
0;
18
01
0<
03
0-
00
0&
0#
#730000
b1001 "
b11 !
1;
04
1<
10
1&
#740000
b1 !
b0 !
0;
08
0<
00
0&
#750000
b1000 "
b1010 "
b10 !
18
0:
17
19
1/
1%
#760000
b10 "
b1010 !
b1011 !
b11 "
1;
11
1:
02
1<
10
1&
#770000
b111 "
b1010 !
b110 "
0;
0:
14
0<
00
0&
#780000
b1110 !
b1110 "
b1111 "
1:
12
15
13
16
1.
1-
1#
1$
#790000
b1100 !
b1011 "
b1101 !
b11 "
b10 "
0:
04
02
1;
08
06
03
09
0/
0-
0.
0$
0#
0%
#800000
b0 "
b1111 !
b1110 !
b1 "
0;
18
1:
07
#810000
b110 !
b1001 "
b1011 "
b100 !
17
12
08
01
#820000
b101 !
b1010 "
b111 !
0:
1;
18
19
1/
1%
#830000
b1110 "
b1100 "
b1101 "
1:
07
14
1<
09
16
1.
0/
10
1&
0%
1$
#840000
b1111 !
b101 "
b111 "
17
02
11
19
1/
1%
#850000
b1110 !
b1100 !
b11 "
b10 "
b1010 "
0:
04
12
0;
08
0<
06
13
09
0/
1-
0.
00
0&
0$
1#
0%
#860000
b100 !
b101 !
b10 "
02
1;
01
03
0-
0#
#870000
b0 "
b111 !
b100 "
b1111 !
b1110 !
0;
18
11
07
14
16
1.
1$
#880000
b101 "
b1101 "
b1001 "
b110 !
b111 !
1;
01
1:
04
12
1<
06
0.
10
1&
0$
#890000
b1011 "
b1010 "
b10 "
0:
17
02
0<
19
1/
00
0&
1%
#900000
b11 !
b1 !
b110 "
b1001 !
b1000 !
b100 "
b1100 "
07
14
12
0;
08
05
11
09
13
1-
0/
0%
1#
#910000
b1100 !
b1000 "
b100 !
b101 !
04
1;
15
01
03
0-
0#
#920000
b1001 "
b1011 "
b11 "
b1 !
b111 "
05
1:
17
14
02
1<
10
1&
#930000
b1001 !
b1000 !
b101 "
b1 "
07
04
0;
11
0<
00
0&
#940000
b1010 !
b0 "
b1110 !
b110 !
b10 "
b110 "
0:
17
14
18
15
01
19
16
1.
1/
1%
1$
#950000
b1110 "
b111 !
b101 !
b1111 "
1;
08
1:
12
1<
09
0/
10
1&
0%
#960000
b1101 "
b101 "
b100 "
0:
07
02
0<
00
0&
#970000
b1101 !
b1111 !
b110 "
b1110 "
17
12
18
11
19
13
1-
1/
1%
1#
#980000
b1011 !
b1111 "
b1001 !
b111 "
1:
02
08
05
1<
03
09
06
0.
0/
0-
10
1&
0#
0%
0$
#990000
b11 "
b1 "
b1101 !
b1001 "
15
07
04
12
13
1-
1#
